{
"type": "FeatureCollection",
"features": [
{ "type": "Feature", "properties": {}, "geometry": { "type": "Polygon", "coordinates": [ [ [ 0.0, 0.0 ], [ 0.25, 0.0 ], [ 0.25, 0.5 ], [ 0.0, 0.5 ], [ 0.0, 0.0 ] ] ] } },
{ "type": "Feature", "properties": {}, "geometry": { "type": "Polygon", "coordinates": [ [ [ 0.25, 0.0 ], [ 0.5, 0.0 ], [ 0.5, 0.5 ], [ 0.25, 0.5 ], [ 0.25, 0.0 ] ] ] } },
{ "type": "Feature", "properties": {}, "geometry": { "type": "Polygon", "coordinates": [ [ [ 0.5, 0.0 ], [ 0.75, 0.0 ], [ 0.75, 0.5 ], [ 0.5, 0.5 ], [ 0.5, 0.0 ] ] ] } },
{ "type": "Feature", "properties": {}, "geometry": { "type": "Polygon", "coordinates": [ [ [ 0.75, 0.0 ], [ 1.0, 0.0 ], [ 1.0, 0.5 ], [ 0.75, 0.5 ], [ 0.75, 0.0 ] ] ] } },
{ "type": "Feature", "properties": {}, "geometry": { "type": "Polygon", "coordinates": [ [ [ 0.75, 0.5 ], [ 1.0, 0.5 ], [ 1.0, 1.0 ], [ 0.75, 1.0 ], [ 0.75, 0.5 ] ] ] } },
{ "type": "Feature", "properties": {}, "geometry": { "type": "Polygon", "coordinates": [ [ [ 0.5, 0.5 ], [ 0.75, 0.5 ], [ 0.75, 1.0 ], [ 0.5, 1.0 ], [ 0.5, 0.5 ] ] ] } },
{ "type": "Feature", "properties": {}, "geometry": { "type": "Polygon", "coordinates": [ [ [ 0.25, 0.5 ], [ 0.5, 0.5 ], [ 0.5, 1.0 ], [ 0.25, 1.0 ], [ 0.25, 0.5 ] ] ] } },
{ "type": "Feature", "properties": {}, "geometry": { "type": "Polygon", "coordinates": [ [ [ 0.0, 0.5 ], [ 0.25, 0.5 ], [ 0.25, 1.0 ], [ 0.0, 1.0 ], [ 0.0, 0.5 ] ] ] } }
]
}
